sim/transcript
# do run.do
# --- Compiling RTL ---
# QuestaSim-64 vlog 10.7c Compiler 2018.08 Aug 18 2018
# Start time: 08:16:00 on Dec 11,2025
# vlog -sv ../tb/dff_if.sv ../dff.v 
# -- Compiling interface dff_if
# -- Compiling module dff
# 
# Top level modules:
# 	dff
# End time: 08:16:01 on Dec 11,2025, Elapsed time: 0:00:01
# Errors: 0, Warnings: 0
# --- Compiling UVC Package ---
# QuestaSim-64 vlog 10.7c Compiler 2018.08 Aug 18 2018
# Start time: 08:16:01 on Dec 11,2025
# vlog -sv "+incdir+../uvc/env" "+incdir+../uvc/seq" "+incdir+../uvc/tests" ../uvc/env/dff_pkg.sv 
# -- Compiling package dff_pkg
# -- Importing package mtiUvm.uvm_pkg (uvm-1.1d Built-in)
# ** Note: (vlog-2286) ../uvc/env/dff_pkg.sv(3): Using implicit +incdir+D:/questasim_b_install/uvm-1.1d/../verilog_src/uvm-1.1d/src from import uvm_pkg
# 
# Top level modules:
# 	--none--
# End time: 08:16:03 on Dec 11,2025, Elapsed time: 0:00:02
# Errors: 0, Warnings: 0
# --- Compiling Tests Package ---
# --- Compiling Top Module ---
# QuestaSim-64 vlog 10.7c Compiler 2018.08 Aug 18 2018
# Start time: 08:16:03 on Dec 11,2025
# vlog -sv ../tb/top.sv 
# ** Note: (vlog-2286) ../tb/top.sv(3): Using implicit +incdir+D:/questasim_b_install/uvm-1.1d/../verilog_src/uvm-1.1d/src from import uvm_pkg
# -- Compiling package top_sv_unit
# -- Importing package mtiUvm.uvm_pkg (uvm-1.1d Built-in)
# -- Importing package dff_pkg
# -- Compiling module top
# 
# Top level modules:
# 	top
# End time: 08:16:03 on Dec 11,2025, Elapsed time: 0:00:00
# Errors: 0, Warnings: 0
# --- Compilation successful! ---
# --- Starting Simulation ---
# vsim top "+UVM_TESTNAME=dff_test" 
# Start time: 08:16:05 on Dec 11,2025
# ** Note: (vsim-3812) Design is being optimized...
# //  Questa Sim-64
# //  Version 10.7c win64 Aug 18 2018
# //
# //  Copyright 1991-2018 Mentor Graphics Corporation
# //  All Rights Reserved.
# //
# //  QuestaSim and its associated documentation contain trade
# //  secrets and commercial or financial information that are the property of
# //  Mentor Graphics Corporation and are privileged, confidential,
# //  and exempt from disclosure under the Freedom of Information Act,
# //  5 U.S.C. Section 552. Furthermore, this information
# //  is prohibited from disclosure under the Trade Secrets Act,
# //  18 U.S.C. Section 1905.
# //
# Loading sv_std.std
# Loading work.dff_if(fast)
# Loading mtiUvm.uvm_pkg
# Loading work.dff_pkg(fast)
# Loading work.top_sv_unit(fast)
# Loading work.top(fast)
# Loading mtiUvm.questa_uvm_pkg(fast)
# Loading D:/questasim_b_install/uvm-1.1d\win64\uvm_dpi.dll
# ----------------------------------------------------------------
# UVM-1.1d
# (C) 2007-2013 Mentor Graphics Corporation
# (C) 2007-2013 Cadence Design Systems, Inc.
# (C) 2006-2013 Synopsys, Inc.
# (C) 2011-2013 Cypress Semiconductor Corp.
# ----------------------------------------------------------------
# 
#   ***********       IMPORTANT RELEASE NOTES         ************
# 
#   You are using a version of the UVM library that has been compiled
#   with `UVM_NO_DEPRECATED undefined.
#   See http://www.eda.org/svdb/view.php?id=3313 for more details.
# 
#   You are using a version of the UVM library that has been compiled
#   with `UVM_OBJECT_MUST_HAVE_CONSTRUCTOR undefined.
#   See http://www.eda.org/svdb/view.php?id=3770 for more details.
# 
#       (Specify +UVM_NO_RELNOTES to turn off this notice)
# 
# UVM_INFO verilog_src/questa_uvm_pkg-1.2/src/questa_uvm_pkg.sv(215) @ 0: reporter [Questa UVM] QUESTA_UVM-1.2.3
# UVM_INFO verilog_src/questa_uvm_pkg-1.2/src/questa_uvm_pkg.sv(216) @ 0: reporter [Questa UVM]  questa_uvm::init(+struct)
# UVM_INFO @ 0: reporter [RNTST] Running test dff_test...
# UVM_INFO @ 0: reporter [UVMTOP] UVM testbench topology:
# ------------------------------------------------------------------
# Name                       Type                        Size  Value
# ------------------------------------------------------------------
# uvm_test_top               dff_test                    -     @471 
#   env                      dff_env                     -     @478 
#     agent                  dff_agent                   -     @485 
#       driver               dff_driver                  -     @594 
#         rsp_port           uvm_analysis_port           -     @609 
#         seq_item_port      uvm_seq_item_pull_port      -     @601 
#       golden_model         dff_golden                  -     @632 
#         item_golden_port   uvm_analysis_port           -     @639 
#       monitor              dff_monitor                 -     @617 
#         item_send_port     uvm_analysis_port           -     @624 
#       seqr                 uvm_sequencer               -     @647 
#         rsp_export         uvm_analysis_export         -     @654 
#         seq_item_export    uvm_seq_item_pull_imp       -     @748 
#         arbitration_queue  array                       0     -    
#         lock_queue         array                       0     -    
#         num_last_reqs      integral                    32    'd1  
#         num_last_rsps      integral                    32    'd1  
#     scoreboard             dff_scoreboard              -     @492 
#       item_golden_imp      uvm_tlm_analysis_fifo #(T)  -     @546 
#         analysis_export    uvm_analysis_imp            -     @585 
#         get_ap             uvm_analysis_port           -     @577 
#         get_peek_export    uvm_get_peek_imp            -     @561 
#         put_ap             uvm_analysis_port           -     @569 
#         put_export         uvm_put_imp                 -     @553 
#       item_got_imp         uvm_tlm_analysis_fifo #(T)  -     @499 
#         analysis_export    uvm_analysis_imp            -     @538 
#         get_ap             uvm_analysis_port           -     @530 
#         get_peek_export    uvm_get_peek_imp            -     @514 
#         put_ap             uvm_analysis_port           -     @522 
#         put_export         uvm_put_imp                 -     @506 
# ------------------------------------------------------------------
# 
# UVM_INFO ../uvc/env/./dff_scoreboard.sv(27) @ 5000: uvm_test_top.env.scoreboard [SCO]  Pass , din = 0 , dout = 0 | golden_din = 0, golden_dout = 0
# UVM_INFO ../uvc/env/./dff_scoreboard.sv(27) @ 15000: uvm_test_top.env.scoreboard [SCO]  Pass , din = 0 , dout = 0 | golden_din = 0, golden_dout = 0
# UVM_INFO ../uvc/env/./dff_scoreboard.sv(27) @ 25000: uvm_test_top.env.scoreboard [SCO]  Pass , din = 1 , dout = 0 | golden_din = 1, golden_dout = 0
# UVM_INFO ../uvc/env/./dff_scoreboard.sv(27) @ 35000: uvm_test_top.env.scoreboard [SCO]  Pass , din = 1 , dout = 1 | golden_din = 1, golden_dout = 1
# UVM_INFO ../uvc/env/./dff_scoreboard.sv(27) @ 45000: uvm_test_top.env.scoreboard [SCO]  Pass , din = 0 , dout = 1 | golden_din = 0, golden_dout = 1
# UVM_INFO ../uvc/env/./dff_scoreboard.sv(27) @ 55000: uvm_test_top.env.scoreboard [SCO]  Pass , din = 0 , dout = 0 | golden_din = 0, golden_dout = 0
# UVM_INFO ../uvc/env/./dff_scoreboard.sv(27) @ 65000: uvm_test_top.env.scoreboard [SCO]  Pass , din = 1 , dout = 0 | golden_din = 1, golden_dout = 0
# UVM_INFO ../uvc/env/./dff_scoreboard.sv(27) @ 75000: uvm_test_top.env.scoreboard [SCO]  Pass , din = 0 , dout = 1 | golden_din = 0, golden_dout = 1
# UVM_INFO ../uvc/env/./dff_scoreboard.sv(27) @ 85000: uvm_test_top.env.scoreboard [SCO]  Pass , din = 1 , dout = 0 | golden_din = 1, golden_dout = 0
# UVM_INFO ../uvc/env/./dff_scoreboard.sv(27) @ 95000: uvm_test_top.env.scoreboard [SCO]  Pass , din = 0 , dout = 1 | golden_din = 0, golden_dout = 1
# UVM_INFO ../uvc/env/./dff_scoreboard.sv(27) @ 105000: uvm_test_top.env.scoreboard [SCO]  Pass , din = 1 , dout = 0 | golden_din = 1, golden_dout = 0
# UVM_INFO ../uvc/env/./dff_scoreboard.sv(27) @ 115000: uvm_test_top.env.scoreboard [SCO]  Pass , din = 1 , dout = 1 | golden_din = 1, golden_dout = 1
# UVM_INFO ../uvc/env/./dff_scoreboard.sv(27) @ 125000: uvm_test_top.env.scoreboard [SCO]  Pass , din = 0 , dout = 1 | golden_din = 0, golden_dout = 1
# UVM_INFO ../uvc/env/./dff_scoreboard.sv(27) @ 135000: uvm_test_top.env.scoreboard [SCO]  Pass , din = 0 , dout = 0 | golden_din = 0, golden_dout = 0
# UVM_INFO ../uvc/env/./dff_scoreboard.sv(27) @ 145000: uvm_test_top.env.scoreboard [SCO]  Pass , din = 1 , dout = 0 | golden_din = 1, golden_dout = 0
# UVM_INFO ../uvc/env/./dff_scoreboard.sv(27) @ 155000: uvm_test_top.env.scoreboard [SCO]  Pass , din = 0 , dout = 1 | golden_din = 0, golden_dout = 1
# UVM_INFO ../uvc/env/./dff_scoreboard.sv(27) @ 165000: uvm_test_top.env.scoreboard [SCO]  Pass , din = 1 , dout = 0 | golden_din = 1, golden_dout = 0
# UVM_INFO ../uvc/env/./dff_scoreboard.sv(27) @ 175000: uvm_test_top.env.scoreboard [SCO]  Pass , din = 1 , dout = 1 | golden_din = 1, golden_dout = 1
# UVM_INFO ../uvc/env/./dff_scoreboard.sv(27) @ 185000: uvm_test_top.env.scoreboard [SCO]  Pass , din = 0 , dout = 1 | golden_din = 0, golden_dout = 1
# UVM_INFO ../uvc/env/./dff_scoreboard.sv(27) @ 195000: uvm_test_top.env.scoreboard [SCO]  Pass , din = 0 , dout = 0 | golden_din = 0, golden_dout = 0
# UVM_INFO ../uvc/env/./dff_scoreboard.sv(27) @ 205000: uvm_test_top.env.scoreboard [SCO]  Pass , din = 1 , dout = 0 | golden_din = 1, golden_dout = 0
# UVM_INFO ../uvc/env/./dff_scoreboard.sv(27) @ 215000: uvm_test_top.env.scoreboard [SCO]  Pass , din = 0 , dout = 1 | golden_din = 0, golden_dout = 1
# UVM_INFO ../uvc/env/./dff_scoreboard.sv(27) @ 225000: uvm_test_top.env.scoreboard [SCO]  Pass , din = 1 , dout = 0 | golden_din = 1, golden_dout = 0
# UVM_INFO ../uvc/env/./dff_scoreboard.sv(27) @ 235000: uvm_test_top.env.scoreboard [SCO]  Pass , din = 1 , dout = 1 | golden_din = 1, golden_dout = 1
# UVM_INFO ../uvc/env/./dff_scoreboard.sv(27) @ 245000: uvm_test_top.env.scoreboard [SCO]  Pass , din = 0 , dout = 1 | golden_din = 0, golden_dout = 1
# UVM_INFO ../uvc/env/./dff_scoreboard.sv(27) @ 255000: uvm_test_top.env.scoreboard [SCO]  Pass , din = 0 , dout = 0 | golden_din = 0, golden_dout = 0
# UVM_INFO ../uvc/env/./dff_scoreboard.sv(27) @ 265000: uvm_test_top.env.scoreboard [SCO]  Pass , din = 0 , dout = 0 | golden_din = 0, golden_dout = 0
# UVM_INFO ../uvc/env/./dff_scoreboard.sv(27) @ 275000: uvm_test_top.env.scoreboard [SCO]  Pass , din = 1 , dout = 0 | golden_din = 1, golden_dout = 0
# UVM_INFO ../uvc/env/./dff_scoreboard.sv(27) @ 285000: uvm_test_top.env.scoreboard [SCO]  Pass , din = 0 , dout = 1 | golden_din = 0, golden_dout = 1
# UVM_INFO ../uvc/env/./dff_scoreboard.sv(27) @ 295000: uvm_test_top.env.scoreboard [SCO]  Pass , din = 0 , dout = 0 | golden_din = 0, golden_dout = 0
# UVM_INFO verilog_src/uvm-1.1d/src/base/uvm_objection.svh(1267) @ 295000: reporter [TEST_DONE] 'run' phase is ready to proceed to the 'extract' phase
# UVM_INFO ../uvc/env/../tests/base_test.sv(44) @ 295000: uvm_test_top [BASE_TEST] ** TEST PASSED **
# 
# --- UVM Report Summary ---
# 
# ** Report counts by severity
# UVM_INFO :   36
# UVM_WARNING :    0
# UVM_ERROR :    0
# UVM_FATAL :    0
# ** Report counts by id
# [BASE_TEST]     1
# [Questa UVM]     2
# [RNTST]     1
# [SCO]    30
# [TEST_DONE]     1
# [UVMTOP]     1
# ** Note: $finish    : D:/questasim_b_install/win64/../verilog_src/uvm-1.1d/src/base/uvm_root.svh(430)
#    Time: 295 ns  Iteration: 61  Instance: /top
# End time: 08:16:14 on Dec 11,2025, Elapsed time: 0:00:09
# Errors: 0, Warnings: 0
