sim/logs/dff_test.log
# vsim -c -coverage top "+UVM_TESTNAME=dff_test" -voptargs="+acc" -assertdebug -l logs/dff_test.log -do "coverage save -onexit cov/dff_test.ucdb; run -all; quit" 
# Start time: 12:47:52 on Dec 25,2025
# ** Note: (vsim-3813) Design is being optimized due to module recompilation...
# //  Questa Sim-64
# //  Version 10.7c win64 Aug 18 2018
# //
# //  Copyright 1991-2018 Mentor Graphics Corporation
# //  All Rights Reserved.
# //
# //  QuestaSim and its associated documentation contain trade
# //  secrets and commercial or financial information that are the property of
# //  Mentor Graphics Corporation and are privileged, confidential,
# //  and exempt from disclosure under the Freedom of Information Act,
# //  5 U.S.C. Section 552. Furthermore, this information
# //  is prohibited from disclosure under the Trade Secrets Act,
# //  18 U.S.C. Section 1905.
# //
# Loading sv_std.std
# Loading work.dff_if(fast)
# Loading mtiUvm.uvm_pkg
# Loading work.dff_pkg(fast)
# Loading work.top_sv_unit(fast)
# Loading work.top(fast)
# Loading work.dff_if(fast)
# Loading work.dff(fast)
# Loading mtiUvm.questa_uvm_pkg(fast)
# Loading D:/questasim_b_install/uvm-1.1d\win64\uvm_dpi.dll
# coverage save -onexit cov/dff_test.ucdb
#  run -all
# ----------------------------------------------------------------
# UVM-1.1d
# (C) 2007-2013 Mentor Graphics Corporation
# (C) 2007-2013 Cadence Design Systems, Inc.
# (C) 2006-2013 Synopsys, Inc.
# (C) 2011-2013 Cypress Semiconductor Corp.
# ----------------------------------------------------------------
# 
#   ***********       IMPORTANT RELEASE NOTES         ************
# 
#   You are using a version of the UVM library that has been compiled
#   with `UVM_NO_DEPRECATED undefined.
#   See http://www.eda.org/svdb/view.php?id=3313 for more details.
# 
#   You are using a version of the UVM library that has been compiled
#   with `UVM_OBJECT_MUST_HAVE_CONSTRUCTOR undefined.
#   See http://www.eda.org/svdb/view.php?id=3770 for more details.
# 
#       (Specify +UVM_NO_RELNOTES to turn off this notice)
# 
# UVM_INFO verilog_src/questa_uvm_pkg-1.2/src/questa_uvm_pkg.sv(215) @ 0: reporter [Questa UVM] QUESTA_UVM-1.2.3
# UVM_INFO verilog_src/questa_uvm_pkg-1.2/src/questa_uvm_pkg.sv(216) @ 0: reporter [Questa UVM]  questa_uvm::init(+struct)
# UVM_INFO @ 0: reporter [RNTST] Running test dff_test...
# UVM_INFO @ 0: reporter [UVMTOP] UVM testbench topology:
# ---------------------------------------------------------------
# Name                       Type                     Size  Value
# ---------------------------------------------------------------
# uvm_test_top               dff_test                 -     @471 
#   env                      dff_env                  -     @478 
#     agent                  dff_agent                -     @485 
#       driver               dff_driver               -     @531 
#         rsp_port           uvm_analysis_port        -     @546 
#         seq_item_port      uvm_seq_item_pull_port   -     @538 
#       golden_model         dff_golden               -     @569 
#         item_golden_port   uvm_analysis_port        -     @576 
#       monitor              dff_monitor              -     @554 
#         item_send_port     uvm_analysis_port        -     @561 
#       seqr                 uvm_sequencer            -     @584 
#         rsp_export         uvm_analysis_export      -     @591 
#         seq_item_export    uvm_seq_item_pull_imp    -     @685 
#         arbitration_queue  array                    0     -    
#         lock_queue         array                    0     -    
#         num_last_reqs      integral                 32    'd1  
#         num_last_rsps      integral                 32    'd1  
#     cov                    dff_coverage             -     @515 
#       analysis_imp         uvm_analysis_imp         -     @522 
#     scoreboard             dff_scoreboard           -     @492 
#       item_dut_imp         uvm_analysis_imp_dut     -     @499 
#       item_golden_imp      uvm_analysis_imp_golden  -     @507 
# ---------------------------------------------------------------
# 
# UVM_INFO ..\uvc\env\.\dff_scoreboard.sv(47) @ 5000: uvm_test_top.env.scoreboard [SCO]  Pass , din = 0 , dout = 0 | golden_din = 0, golden_dout = 0
# UVM_INFO ..\uvc\env\.\dff_scoreboard.sv(47) @ 15000: uvm_test_top.env.scoreboard [SCO]  Pass , din = 0 , dout = 0 | golden_din = 0, golden_dout = 0
# UVM_INFO ..\uvc\env\.\dff_scoreboard.sv(47) @ 25000: uvm_test_top.env.scoreboard [SCO]  Pass , din = 1 , dout = 0 | golden_din = 1, golden_dout = 0
# UVM_INFO ..\uvc\env\.\dff_scoreboard.sv(47) @ 35000: uvm_test_top.env.scoreboard [SCO]  Pass , din = 1 , dout = 0 | golden_din = 1, golden_dout = 0
# UVM_INFO ..\uvc\env\.\dff_scoreboard.sv(47) @ 45000: uvm_test_top.env.scoreboard [SCO]  Pass , din = 0 , dout = 0 | golden_din = 0, golden_dout = 0
# UVM_INFO ..\uvc\env\.\dff_scoreboard.sv(47) @ 55000: uvm_test_top.env.scoreboard [SCO]  Pass , din = 0 , dout = 0 | golden_din = 0, golden_dout = 0
# UVM_INFO ..\uvc\env\.\dff_scoreboard.sv(47) @ 65000: uvm_test_top.env.scoreboard [SCO]  Pass , din = 1 , dout = 0 | golden_din = 1, golden_dout = 0
# UVM_INFO ..\uvc\env\.\dff_scoreboard.sv(47) @ 75000: uvm_test_top.env.scoreboard [SCO]  Pass , din = 0 , dout = 0 | golden_din = 0, golden_dout = 0
# UVM_INFO ..\uvc\env\.\dff_scoreboard.sv(47) @ 85000: uvm_test_top.env.scoreboard [SCO]  Pass , din = 1 , dout = 0 | golden_din = 1, golden_dout = 0
# UVM_INFO ..\uvc\env\.\dff_scoreboard.sv(47) @ 95000: uvm_test_top.env.scoreboard [SCO]  Pass , din = 0 , dout = 1 | golden_din = 0, golden_dout = 1
# UVM_INFO ..\uvc\env\.\dff_scoreboard.sv(47) @ 105000: uvm_test_top.env.scoreboard [SCO]  Pass , din = 1 , dout = 0 | golden_din = 1, golden_dout = 0
# UVM_INFO ..\uvc\env\.\dff_scoreboard.sv(47) @ 115000: uvm_test_top.env.scoreboard [SCO]  Pass , din = 1 , dout = 1 | golden_din = 1, golden_dout = 1
# UVM_INFO ..\uvc\env\.\dff_scoreboard.sv(47) @ 125000: uvm_test_top.env.scoreboard [SCO]  Pass , din = 0 , dout = 1 | golden_din = 0, golden_dout = 1
# UVM_INFO ..\uvc\env\.\dff_scoreboard.sv(47) @ 135000: uvm_test_top.env.scoreboard [SCO]  Pass , din = 0 , dout = 0 | golden_din = 0, golden_dout = 0
# UVM_INFO ..\uvc\env\.\dff_scoreboard.sv(47) @ 145000: uvm_test_top.env.scoreboard [SCO]  Pass , din = 1 , dout = 0 | golden_din = 1, golden_dout = 0
# UVM_INFO ..\uvc\env\.\dff_scoreboard.sv(47) @ 155000: uvm_test_top.env.scoreboard [SCO]  Pass , din = 0 , dout = 1 | golden_din = 0, golden_dout = 1
# UVM_INFO ..\uvc\env\.\dff_scoreboard.sv(47) @ 165000: uvm_test_top.env.scoreboard [SCO]  Pass , din = 1 , dout = 0 | golden_din = 1, golden_dout = 0
# UVM_INFO ..\uvc\env\.\dff_scoreboard.sv(47) @ 175000: uvm_test_top.env.scoreboard [SCO]  Pass , din = 1 , dout = 1 | golden_din = 1, golden_dout = 1
# UVM_INFO ..\uvc\env\.\dff_scoreboard.sv(47) @ 185000: uvm_test_top.env.scoreboard [SCO]  Pass , din = 0 , dout = 1 | golden_din = 0, golden_dout = 1
# UVM_INFO ..\uvc\env\.\dff_scoreboard.sv(47) @ 195000: uvm_test_top.env.scoreboard [SCO]  Pass , din = 0 , dout = 0 | golden_din = 0, golden_dout = 0
# UVM_INFO ..\uvc\env\.\dff_scoreboard.sv(47) @ 205000: uvm_test_top.env.scoreboard [SCO]  Pass , din = 1 , dout = 0 | golden_din = 1, golden_dout = 0
# UVM_INFO ..\uvc\env\.\dff_scoreboard.sv(47) @ 215000: uvm_test_top.env.scoreboard [SCO]  Pass , din = 0 , dout = 1 | golden_din = 0, golden_dout = 1
# UVM_INFO ..\uvc\env\.\dff_scoreboard.sv(47) @ 225000: uvm_test_top.env.scoreboard [SCO]  Pass , din = 1 , dout = 0 | golden_din = 1, golden_dout = 0
# UVM_INFO ..\uvc\env\.\dff_scoreboard.sv(47) @ 235000: uvm_test_top.env.scoreboard [SCO]  Pass , din = 1 , dout = 1 | golden_din = 1, golden_dout = 1
# UVM_INFO ..\uvc\env\.\dff_scoreboard.sv(47) @ 245000: uvm_test_top.env.scoreboard [SCO]  Pass , din = 0 , dout = 1 | golden_din = 0, golden_dout = 1
# UVM_INFO ..\uvc\env\.\dff_scoreboard.sv(47) @ 255000: uvm_test_top.env.scoreboard [SCO]  Pass , din = 0 , dout = 0 | golden_din = 0, golden_dout = 0
# UVM_INFO ..\uvc\env\.\dff_scoreboard.sv(47) @ 265000: uvm_test_top.env.scoreboard [SCO]  Pass , din = 0 , dout = 0 | golden_din = 0, golden_dout = 0
# UVM_INFO ..\uvc\env\.\dff_scoreboard.sv(47) @ 275000: uvm_test_top.env.scoreboard [SCO]  Pass , din = 1 , dout = 0 | golden_din = 1, golden_dout = 0
# UVM_INFO ..\uvc\env\.\dff_scoreboard.sv(47) @ 285000: uvm_test_top.env.scoreboard [SCO]  Pass , din = 0 , dout = 1 | golden_din = 0, golden_dout = 1
# UVM_INFO ..\uvc\env\.\dff_scoreboard.sv(47) @ 295000: uvm_test_top.env.scoreboard [SCO]  Pass , din = 0 , dout = 0 | golden_din = 0, golden_dout = 0
# UVM_INFO ..\uvc\env\.\dff_scoreboard.sv(47) @ 305000: uvm_test_top.env.scoreboard [SCO]  Pass , din = 1 , dout = 0 | golden_din = 1, golden_dout = 0
# UVM_INFO ..\uvc\env\.\dff_scoreboard.sv(47) @ 315000: uvm_test_top.env.scoreboard [SCO]  Pass , din = 0 , dout = 1 | golden_din = 0, golden_dout = 1
# UVM_INFO ..\uvc\env\.\dff_scoreboard.sv(47) @ 325000: uvm_test_top.env.scoreboard [SCO]  Pass , din = 1 , dout = 0 | golden_din = 1, golden_dout = 0
# UVM_INFO ..\uvc\env\.\dff_scoreboard.sv(47) @ 335000: uvm_test_top.env.scoreboard [SCO]  Pass , din = 1 , dout = 1 | golden_din = 1, golden_dout = 1
# UVM_INFO ..\uvc\env\.\dff_scoreboard.sv(47) @ 345000: uvm_test_top.env.scoreboard [SCO]  Pass , din = 0 , dout = 1 | golden_din = 0, golden_dout = 1
# UVM_INFO ..\uvc\env\.\dff_scoreboard.sv(47) @ 355000: uvm_test_top.env.scoreboard [SCO]  Pass , din = 1 , dout = 0 | golden_din = 1, golden_dout = 0
# UVM_INFO ..\uvc\env\.\dff_scoreboard.sv(47) @ 365000: uvm_test_top.env.scoreboard [SCO]  Pass , din = 1 , dout = 1 | golden_din = 1, golden_dout = 1
# UVM_INFO ..\uvc\env\.\dff_scoreboard.sv(47) @ 375000: uvm_test_top.env.scoreboard [SCO]  Pass , din = 0 , dout = 1 | golden_din = 0, golden_dout = 1
# UVM_INFO ..\uvc\env\.\dff_scoreboard.sv(47) @ 385000: uvm_test_top.env.scoreboard [SCO]  Pass , din = 0 , dout = 0 | golden_din = 0, golden_dout = 0
# UVM_INFO ..\uvc\env\.\dff_scoreboard.sv(47) @ 395000: uvm_test_top.env.scoreboard [SCO]  Pass , din = 0 , dout = 0 | golden_din = 0, golden_dout = 0
# UVM_INFO ..\uvc\env\.\dff_scoreboard.sv(47) @ 405000: uvm_test_top.env.scoreboard [SCO]  Pass , din = 1 , dout = 0 | golden_din = 1, golden_dout = 0
# UVM_INFO ..\uvc\env\.\dff_scoreboard.sv(47) @ 415000: uvm_test_top.env.scoreboard [SCO]  Pass , din = 1 , dout = 1 | golden_din = 1, golden_dout = 1
# UVM_INFO ..\uvc\env\.\dff_scoreboard.sv(47) @ 425000: uvm_test_top.env.scoreboard [SCO]  Pass , din = 0 , dout = 1 | golden_din = 0, golden_dout = 1
# UVM_INFO ..\uvc\env\.\dff_scoreboard.sv(47) @ 435000: uvm_test_top.env.scoreboard [SCO]  Pass , din = 0 , dout = 0 | golden_din = 0, golden_dout = 0
# UVM_INFO ..\uvc\env\.\dff_scoreboard.sv(47) @ 445000: uvm_test_top.env.scoreboard [SCO]  Pass , din = 1 , dout = 0 | golden_din = 1, golden_dout = 0
# UVM_INFO ..\uvc\env\.\dff_scoreboard.sv(47) @ 455000: uvm_test_top.env.scoreboard [SCO]  Pass , din = 0 , dout = 1 | golden_din = 0, golden_dout = 1
# UVM_INFO ..\uvc\env\.\dff_scoreboard.sv(47) @ 465000: uvm_test_top.env.scoreboard [SCO]  Pass , din = 0 , dout = 0 | golden_din = 0, golden_dout = 0
# UVM_INFO ..\uvc\env\.\dff_scoreboard.sv(47) @ 475000: uvm_test_top.env.scoreboard [SCO]  Pass , din = 0 , dout = 0 | golden_din = 0, golden_dout = 0
# UVM_INFO ..\uvc\env\.\dff_scoreboard.sv(47) @ 485000: uvm_test_top.env.scoreboard [SCO]  Pass , din = 1 , dout = 0 | golden_din = 1, golden_dout = 0
# UVM_INFO ..\uvc\env\.\dff_scoreboard.sv(47) @ 495000: uvm_test_top.env.scoreboard [SCO]  Pass , din = 1 , dout = 1 | golden_din = 1, golden_dout = 1
# UVM_INFO ..\uvc\env\.\dff_scoreboard.sv(47) @ 505000: uvm_test_top.env.scoreboard [SCO]  Pass , din = 1 , dout = 1 | golden_din = 1, golden_dout = 1
# UVM_INFO ..\uvc\env\.\dff_scoreboard.sv(47) @ 515000: uvm_test_top.env.scoreboard [SCO]  Pass , din = 0 , dout = 1 | golden_din = 0, golden_dout = 1
# UVM_INFO ..\uvc\env\.\dff_scoreboard.sv(47) @ 525000: uvm_test_top.env.scoreboard [SCO]  Pass , din = 0 , dout = 0 | golden_din = 0, golden_dout = 0
# UVM_INFO ..\uvc\env\.\dff_scoreboard.sv(47) @ 535000: uvm_test_top.env.scoreboard [SCO]  Pass , din = 0 , dout = 0 | golden_din = 0, golden_dout = 0
# UVM_INFO ..\uvc\env\.\dff_scoreboard.sv(47) @ 545000: uvm_test_top.env.scoreboard [SCO]  Pass , din = 1 , dout = 0 | golden_din = 1, golden_dout = 0
# UVM_INFO ..\uvc\env\.\dff_scoreboard.sv(47) @ 555000: uvm_test_top.env.scoreboard [SCO]  Pass , din = 0 , dout = 1 | golden_din = 0, golden_dout = 1
# UVM_INFO ..\uvc\env\.\dff_scoreboard.sv(47) @ 565000: uvm_test_top.env.scoreboard [SCO]  Pass , din = 1 , dout = 0 | golden_din = 1, golden_dout = 0
# UVM_INFO ..\uvc\env\.\dff_scoreboard.sv(47) @ 575000: uvm_test_top.env.scoreboard [SCO]  Pass , din = 0 , dout = 1 | golden_din = 0, golden_dout = 1
# UVM_INFO ..\uvc\env\.\dff_scoreboard.sv(47) @ 585000: uvm_test_top.env.scoreboard [SCO]  Pass , din = 0 , dout = 0 | golden_din = 0, golden_dout = 0
# UVM_INFO ..\uvc\env\.\dff_scoreboard.sv(47) @ 595000: uvm_test_top.env.scoreboard [SCO]  Pass , din = 1 , dout = 0 | golden_din = 1, golden_dout = 0
# UVM_INFO ..\uvc\env\.\dff_scoreboard.sv(47) @ 605000: uvm_test_top.env.scoreboard [SCO]  Pass , din = 1 , dout = 1 | golden_din = 1, golden_dout = 1
# UVM_INFO ..\uvc\env\.\dff_scoreboard.sv(47) @ 615000: uvm_test_top.env.scoreboard [SCO]  Pass , din = 1 , dout = 1 | golden_din = 1, golden_dout = 1
# UVM_INFO ..\uvc\env\.\dff_scoreboard.sv(47) @ 625000: uvm_test_top.env.scoreboard [SCO]  Pass , din = 1 , dout = 1 | golden_din = 1, golden_dout = 1
# UVM_INFO ..\uvc\env\.\dff_scoreboard.sv(47) @ 635000: uvm_test_top.env.scoreboard [SCO]  Pass , din = 1 , dout = 1 | golden_din = 1, golden_dout = 1
# UVM_INFO ..\uvc\env\.\dff_scoreboard.sv(47) @ 645000: uvm_test_top.env.scoreboard [SCO]  Pass , din = 0 , dout = 1 | golden_din = 0, golden_dout = 1
# UVM_INFO ..\uvc\env\.\dff_scoreboard.sv(47) @ 655000: uvm_test_top.env.scoreboard [SCO]  Pass , din = 1 , dout = 0 | golden_din = 1, golden_dout = 0
# UVM_INFO ..\uvc\env\.\dff_scoreboard.sv(47) @ 665000: uvm_test_top.env.scoreboard [SCO]  Pass , din = 0 , dout = 1 | golden_din = 0, golden_dout = 1
# UVM_INFO ..\uvc\env\.\dff_scoreboard.sv(47) @ 675000: uvm_test_top.env.scoreboard [SCO]  Pass , din = 0 , dout = 0 | golden_din = 0, golden_dout = 0
# UVM_INFO ..\uvc\env\.\dff_scoreboard.sv(47) @ 685000: uvm_test_top.env.scoreboard [SCO]  Pass , din = 0 , dout = 0 | golden_din = 0, golden_dout = 0
# UVM_INFO ..\uvc\env\.\dff_scoreboard.sv(47) @ 695000: uvm_test_top.env.scoreboard [SCO]  Pass , din = 0 , dout = 0 | golden_din = 0, golden_dout = 0
# UVM_INFO ..\uvc\env\.\dff_scoreboard.sv(47) @ 705000: uvm_test_top.env.scoreboard [SCO]  Pass , din = 1 , dout = 0 | golden_din = 1, golden_dout = 0
# UVM_INFO ..\uvc\env\.\dff_scoreboard.sv(47) @ 715000: uvm_test_top.env.scoreboard [SCO]  Pass , din = 0 , dout = 1 | golden_din = 0, golden_dout = 1
# UVM_INFO ..\uvc\env\.\dff_scoreboard.sv(47) @ 725000: uvm_test_top.env.scoreboard [SCO]  Pass , din = 1 , dout = 0 | golden_din = 1, golden_dout = 0
# UVM_INFO ..\uvc\env\.\dff_scoreboard.sv(47) @ 735000: uvm_test_top.env.scoreboard [SCO]  Pass , din = 0 , dout = 1 | golden_din = 0, golden_dout = 1
# UVM_INFO ..\uvc\env\.\dff_scoreboard.sv(47) @ 745000: uvm_test_top.env.scoreboard [SCO]  Pass , din = 1 , dout = 0 | golden_din = 1, golden_dout = 0
# UVM_INFO ..\uvc\env\.\dff_scoreboard.sv(47) @ 755000: uvm_test_top.env.scoreboard [SCO]  Pass , din = 0 , dout = 1 | golden_din = 0, golden_dout = 1
# UVM_INFO ..\uvc\env\.\dff_scoreboard.sv(47) @ 765000: uvm_test_top.env.scoreboard [SCO]  Pass , din = 1 , dout = 0 | golden_din = 1, golden_dout = 0
# UVM_INFO ..\uvc\env\.\dff_scoreboard.sv(47) @ 775000: uvm_test_top.env.scoreboard [SCO]  Pass , din = 1 , dout = 1 | golden_din = 1, golden_dout = 1
# UVM_INFO ..\uvc\env\.\dff_scoreboard.sv(47) @ 785000: uvm_test_top.env.scoreboard [SCO]  Pass , din = 0 , dout = 1 | golden_din = 0, golden_dout = 1
# UVM_INFO ..\uvc\env\.\dff_scoreboard.sv(47) @ 795000: uvm_test_top.env.scoreboard [SCO]  Pass , din = 0 , dout = 0 | golden_din = 0, golden_dout = 0
# UVM_INFO ..\uvc\env\.\dff_scoreboard.sv(47) @ 805000: uvm_test_top.env.scoreboard [SCO]  Pass , din = 1 , dout = 0 | golden_din = 1, golden_dout = 0
# UVM_INFO ..\uvc\env\.\dff_scoreboard.sv(47) @ 815000: uvm_test_top.env.scoreboard [SCO]  Pass , din = 1 , dout = 1 | golden_din = 1, golden_dout = 1
# UVM_INFO ..\uvc\env\.\dff_scoreboard.sv(47) @ 825000: uvm_test_top.env.scoreboard [SCO]  Pass , din = 1 , dout = 1 | golden_din = 1, golden_dout = 1
# UVM_INFO ..\uvc\env\.\dff_scoreboard.sv(47) @ 835000: uvm_test_top.env.scoreboard [SCO]  Pass , din = 0 , dout = 1 | golden_din = 0, golden_dout = 1
# UVM_INFO ..\uvc\env\.\dff_scoreboard.sv(47) @ 845000: uvm_test_top.env.scoreboard [SCO]  Pass , din = 1 , dout = 0 | golden_din = 1, golden_dout = 0
# UVM_INFO ..\uvc\env\.\dff_scoreboard.sv(47) @ 855000: uvm_test_top.env.scoreboard [SCO]  Pass , din = 0 , dout = 1 | golden_din = 0, golden_dout = 1
# UVM_INFO ..\uvc\env\.\dff_scoreboard.sv(47) @ 865000: uvm_test_top.env.scoreboard [SCO]  Pass , din = 0 , dout = 0 | golden_din = 0, golden_dout = 0
# UVM_INFO ..\uvc\env\.\dff_scoreboard.sv(47) @ 875000: uvm_test_top.env.scoreboard [SCO]  Pass , din = 0 , dout = 0 | golden_din = 0, golden_dout = 0
# UVM_INFO ..\uvc\env\.\dff_scoreboard.sv(47) @ 885000: uvm_test_top.env.scoreboard [SCO]  Pass , din = 0 , dout = 0 | golden_din = 0, golden_dout = 0
# UVM_INFO ..\uvc\env\.\dff_scoreboard.sv(47) @ 895000: uvm_test_top.env.scoreboard [SCO]  Pass , din = 0 , dout = 0 | golden_din = 0, golden_dout = 0
# UVM_INFO ..\uvc\env\.\dff_scoreboard.sv(47) @ 905000: uvm_test_top.env.scoreboard [SCO]  Pass , din = 1 , dout = 0 | golden_din = 1, golden_dout = 0
# UVM_INFO ..\uvc\env\.\dff_scoreboard.sv(47) @ 915000: uvm_test_top.env.scoreboard [SCO]  Pass , din = 1 , dout = 1 | golden_din = 1, golden_dout = 1
# UVM_INFO ..\uvc\env\.\dff_scoreboard.sv(47) @ 925000: uvm_test_top.env.scoreboard [SCO]  Pass , din = 0 , dout = 1 | golden_din = 0, golden_dout = 1
# UVM_INFO ..\uvc\env\.\dff_scoreboard.sv(47) @ 935000: uvm_test_top.env.scoreboard [SCO]  Pass , din = 0 , dout = 0 | golden_din = 0, golden_dout = 0
# UVM_INFO ..\uvc\env\.\dff_scoreboard.sv(47) @ 945000: uvm_test_top.env.scoreboard [SCO]  Pass , din = 0 , dout = 0 | golden_din = 0, golden_dout = 0
# UVM_INFO ..\uvc\env\.\dff_scoreboard.sv(47) @ 955000: uvm_test_top.env.scoreboard [SCO]  Pass , din = 1 , dout = 0 | golden_din = 1, golden_dout = 0
# UVM_INFO ..\uvc\env\.\dff_scoreboard.sv(47) @ 965000: uvm_test_top.env.scoreboard [SCO]  Pass , din = 0 , dout = 1 | golden_din = 0, golden_dout = 1
# UVM_INFO ..\uvc\env\.\dff_scoreboard.sv(47) @ 975000: uvm_test_top.env.scoreboard [SCO]  Pass , din = 0 , dout = 0 | golden_din = 0, golden_dout = 0
# UVM_INFO ..\uvc\env\.\dff_scoreboard.sv(47) @ 985000: uvm_test_top.env.scoreboard [SCO]  Pass , din = 0 , dout = 0 | golden_din = 0, golden_dout = 0
# UVM_INFO ..\uvc\env\.\dff_scoreboard.sv(47) @ 995000: uvm_test_top.env.scoreboard [SCO]  Pass , din = 1 , dout = 0 | golden_din = 1, golden_dout = 0
# UVM_INFO ..\uvc\env\.\dff_scoreboard.sv(47) @ 1005000: uvm_test_top.env.scoreboard [SCO]  Pass , din = 0 , dout = 1 | golden_din = 0, golden_dout = 1
# UVM_INFO ..\uvc\env\.\dff_scoreboard.sv(47) @ 1015000: uvm_test_top.env.scoreboard [SCO]  Pass , din = 0 , dout = 0 | golden_din = 0, golden_dout = 0
# UVM_INFO ..\uvc\env\.\dff_scoreboard.sv(47) @ 1025000: uvm_test_top.env.scoreboard [SCO]  Pass , din = 0 , dout = 0 | golden_din = 0, golden_dout = 0
# UVM_INFO ..\uvc\env\.\dff_scoreboard.sv(47) @ 1035000: uvm_test_top.env.scoreboard [SCO]  Pass , din = 1 , dout = 0 | golden_din = 1, golden_dout = 0
# UVM_INFO ..\uvc\env\.\dff_scoreboard.sv(47) @ 1045000: uvm_test_top.env.scoreboard [SCO]  Pass , din = 1 , dout = 1 | golden_din = 1, golden_dout = 1
# UVM_INFO ..\uvc\env\.\dff_scoreboard.sv(47) @ 1055000: uvm_test_top.env.scoreboard [SCO]  Pass , din = 0 , dout = 1 | golden_din = 0, golden_dout = 1
# UVM_INFO ..\uvc\env\.\dff_scoreboard.sv(47) @ 1065000: uvm_test_top.env.scoreboard [SCO]  Pass , din = 0 , dout = 0 | golden_din = 0, golden_dout = 0
# UVM_INFO ..\uvc\env\.\dff_scoreboard.sv(47) @ 1075000: uvm_test_top.env.scoreboard [SCO]  Pass , din = 0 , dout = 0 | golden_din = 0, golden_dout = 0
# UVM_INFO ..\uvc\env\.\dff_scoreboard.sv(47) @ 1085000: uvm_test_top.env.scoreboard [SCO]  Pass , din = 0 , dout = 0 | golden_din = 0, golden_dout = 0
# UVM_INFO ..\uvc\env\.\dff_scoreboard.sv(47) @ 1095000: uvm_test_top.env.scoreboard [SCO]  Pass , din = 0 , dout = 0 | golden_din = 0, golden_dout = 0
# UVM_INFO ..\uvc\env\.\dff_scoreboard.sv(47) @ 1105000: uvm_test_top.env.scoreboard [SCO]  Pass , din = 1 , dout = 0 | golden_din = 1, golden_dout = 0
# UVM_INFO ..\uvc\env\.\dff_scoreboard.sv(47) @ 1115000: uvm_test_top.env.scoreboard [SCO]  Pass , din = 1 , dout = 1 | golden_din = 1, golden_dout = 1
# UVM_INFO ..\uvc\env\.\dff_scoreboard.sv(47) @ 1125000: uvm_test_top.env.scoreboard [SCO]  Pass , din = 1 , dout = 1 | golden_din = 1, golden_dout = 1
# UVM_INFO ..\uvc\env\.\dff_scoreboard.sv(47) @ 1135000: uvm_test_top.env.scoreboard [SCO]  Pass , din = 0 , dout = 1 | golden_din = 0, golden_dout = 1
# UVM_INFO ..\uvc\env\.\dff_scoreboard.sv(47) @ 1145000: uvm_test_top.env.scoreboard [SCO]  Pass , din = 0 , dout = 0 | golden_din = 0, golden_dout = 0
# UVM_INFO ..\uvc\env\.\dff_scoreboard.sv(47) @ 1155000: uvm_test_top.env.scoreboard [SCO]  Pass , din = 1 , dout = 0 | golden_din = 1, golden_dout = 0
# UVM_INFO ..\uvc\env\.\dff_scoreboard.sv(47) @ 1165000: uvm_test_top.env.scoreboard [SCO]  Pass , din = 0 , dout = 1 | golden_din = 0, golden_dout = 1
# UVM_INFO ..\uvc\env\.\dff_scoreboard.sv(47) @ 1175000: uvm_test_top.env.scoreboard [SCO]  Pass , din = 1 , dout = 0 | golden_din = 1, golden_dout = 0
# UVM_INFO ..\uvc\env\.\dff_scoreboard.sv(47) @ 1185000: uvm_test_top.env.scoreboard [SCO]  Pass , din = 1 , dout = 1 | golden_din = 1, golden_dout = 1
# UVM_INFO ..\uvc\env\.\dff_scoreboard.sv(47) @ 1195000: uvm_test_top.env.scoreboard [SCO]  Pass , din = 0 , dout = 1 | golden_din = 0, golden_dout = 1
# UVM_INFO ..\uvc\env\.\dff_scoreboard.sv(47) @ 1205000: uvm_test_top.env.scoreboard [SCO]  Pass , din = 1 , dout = 0 | golden_din = 1, golden_dout = 0
# UVM_INFO ..\uvc\env\.\dff_scoreboard.sv(47) @ 1215000: uvm_test_top.env.scoreboard [SCO]  Pass , din = 1 , dout = 1 | golden_din = 1, golden_dout = 1
# UVM_INFO ..\uvc\env\.\dff_scoreboard.sv(47) @ 1225000: uvm_test_top.env.scoreboard [SCO]  Pass , din = 0 , dout = 1 | golden_din = 0, golden_dout = 1
# UVM_INFO ..\uvc\env\.\dff_scoreboard.sv(47) @ 1235000: uvm_test_top.env.scoreboard [SCO]  Pass , din = 0 , dout = 0 | golden_din = 0, golden_dout = 0
# UVM_INFO ..\uvc\env\.\dff_scoreboard.sv(47) @ 1245000: uvm_test_top.env.scoreboard [SCO]  Pass , din = 0 , dout = 0 | golden_din = 0, golden_dout = 0
# UVM_INFO ..\uvc\env\.\dff_scoreboard.sv(47) @ 1255000: uvm_test_top.env.scoreboard [SCO]  Pass , din = 0 , dout = 0 | golden_din = 0, golden_dout = 0
# UVM_INFO ..\uvc\env\.\dff_scoreboard.sv(47) @ 1265000: uvm_test_top.env.scoreboard [SCO]  Pass , din = 0 , dout = 0 | golden_din = 0, golden_dout = 0
# UVM_INFO ..\uvc\env\.\dff_scoreboard.sv(47) @ 1275000: uvm_test_top.env.scoreboard [SCO]  Pass , din = 0 , dout = 0 | golden_din = 0, golden_dout = 0
# UVM_INFO ..\uvc\env\.\dff_scoreboard.sv(47) @ 1285000: uvm_test_top.env.scoreboard [SCO]  Pass , din = 1 , dout = 0 | golden_din = 1, golden_dout = 0
# UVM_INFO ..\uvc\env\.\dff_scoreboard.sv(47) @ 1295000: uvm_test_top.env.scoreboard [SCO]  Pass , din = 0 , dout = 1 | golden_din = 0, golden_dout = 1
# UVM_INFO ..\uvc\env\.\dff_scoreboard.sv(47) @ 1305000: uvm_test_top.env.scoreboard [SCO]  Pass , din = 0 , dout = 0 | golden_din = 0, golden_dout = 0
# UVM_INFO ..\uvc\env\.\dff_scoreboard.sv(47) @ 1315000: uvm_test_top.env.scoreboard [SCO]  Pass , din = 0 , dout = 0 | golden_din = 0, golden_dout = 0
# UVM_INFO ..\uvc\env\.\dff_scoreboard.sv(47) @ 1325000: uvm_test_top.env.scoreboard [SCO]  Pass , din = 1 , dout = 0 | golden_din = 1, golden_dout = 0
# UVM_INFO ..\uvc\env\.\dff_scoreboard.sv(47) @ 1335000: uvm_test_top.env.scoreboard [SCO]  Pass , din = 1 , dout = 1 | golden_din = 1, golden_dout = 1
# UVM_INFO ..\uvc\env\.\dff_scoreboard.sv(47) @ 1345000: uvm_test_top.env.scoreboard [SCO]  Pass , din = 1 , dout = 1 | golden_din = 1, golden_dout = 1
# UVM_INFO ..\uvc\env\.\dff_scoreboard.sv(47) @ 1355000: uvm_test_top.env.scoreboard [SCO]  Pass , din = 0 , dout = 1 | golden_din = 0, golden_dout = 1
# UVM_INFO ..\uvc\env\.\dff_scoreboard.sv(47) @ 1365000: uvm_test_top.env.scoreboard [SCO]  Pass , din = 1 , dout = 0 | golden_din = 1, golden_dout = 0
# UVM_INFO ..\uvc\env\.\dff_scoreboard.sv(47) @ 1375000: uvm_test_top.env.scoreboard [SCO]  Pass , din = 0 , dout = 1 | golden_din = 0, golden_dout = 1
# UVM_INFO ..\uvc\env\.\dff_scoreboard.sv(47) @ 1385000: uvm_test_top.env.scoreboard [SCO]  Pass , din = 0 , dout = 0 | golden_din = 0, golden_dout = 0
# UVM_INFO ..\uvc\env\.\dff_scoreboard.sv(47) @ 1395000: uvm_test_top.env.scoreboard [SCO]  Pass , din = 0 , dout = 0 | golden_din = 0, golden_dout = 0
